# Blender MTL File: 'None'
# Material Count: 1

newmtl cat.001
Ns 92.156863
Ka 0.000000 0.000000 0.000000
Kd 0.640000 0.640000 0.640000
Ks 0.000000 0.000000 0.000000
Ke 0.000000 0.000000 0.000000
Ni 1.000000
d 1.000000
illum 2
map_Kd cat_diff.png
